{
  "page": 1,
  "total_results": 10000,
  "total_pages": 500,
  "results": [
    {
      "popularity": 62.541,
      "known_for_department": "Acting",
      "name": "Dwayne Johnson",
      "id": 18918,
      "profile_path": "\/cgoy7t5Ve075naBPcewZrc08qGw.jpg",
      "adult": false,
      "known_for": [
        {
          "poster_path": "\/22hqf97LadMvkd4zDi3Bq25xSqD.jpg",
          "vote_count": 9852,
          "video": false,
          "media_type": "movie",
          "id": 353486,
          "adult": false,
          "backdrop_path": "\/rz3TAyd5kmiJmozp3GUbYeB5Kep.jpg",
          "original_language": "en",
          "original_title": "Jumanji: Welcome to the Jungle",
          "genre_ids": [
            28,
            12,
            35,
            14
          ],
          "title": "Jumanji: Welcome to the Jungle",
          "vote_average": 6.8,
          "overview": "The tables are turned as four teenagers are sucked into Jumanji's world - pitted against rhinos, black mambas and an endless variety of jungle traps and puzzles. To survive, they'll play as characters from the game.",
          "release_date": "2017-12-09"
        },
        {
          "poster_path": "\/4JeejGugONWpJkbnvL12hVoYEDa.jpg",
          "vote_count": 8759,
          "video": false,
          "media_type": "movie",
          "id": 277834,
          "adult": false,
          "backdrop_path": "\/oWU6dgu3RgdSZElkhbZuoPtkWAJ.jpg",
          "original_language": "en",
          "original_title": "Moana",
          "genre_ids": [
            12,
            16,
            35,
            10751
          ],
          "title": "Moana",
          "vote_average": 7.6,
          "overview": "In Ancient Polynesia, when a terrible curse incurred by Maui reaches an impetuous Chieftain's daughter's island, she answers the Ocean's call to seek out the demigod to set things right.",
          "release_date": "2016-11-23"
        },
        {
          "poster_path": "\/n31VRDodbaZxkrZmmzyYSFNVpW5.jpg",
          "vote_count": 8170,
          "video": false,
          "media_type": "movie",
          "id": 82992,
          "adult": false,
          "backdrop_path": "\/mRfI3y2oAd7ejur2di09xC9niqp.jpg",
          "original_language": "en",
          "original_title": "Fast & Furious 6",
          "genre_ids": [
            28,
            80,
            53
          ],
          "title": "Fast & Furious 6",
          "vote_average": 6.8,
          "overview": "Hobbs has Dominic and Brian reassemble their crew to take down a team of mercenaries: Dominic unexpectedly gets convoluted also facing his presumed deceased girlfriend, Letty.",
          "release_date": "2013-05-21"
        }
      ],
      "gender": 2
    },
    {
      "popularity": 53.595,
      "known_for_department": "Acting",
      "name": "Scarlett Johansson",
      "id": 1245,
      "profile_path": "\/mODcczqQyKuphfFAoBZGhxgnNfs.jpg",
      "adult": false,
      "known_for": [
        {
          "poster_path": "\/RYMX2wcKCBAr24UyPD7xwmjaTn.jpg",
          "vote_count": 23286,
          "video": false,
          "media_type": "movie",
          "id": 24428,
          "adult": false,
          "backdrop_path": "\/kwUQFeFXOOpgloMgZaadhzkbTI4.jpg",
          "original_language": "en",
          "original_title": "The Avengers",
          "genre_ids": [
            28,
            12,
            878
          ],
          "title": "The Avengers",
          "vote_average": 7.7,
          "overview": "When an unexpected enemy emerges and threatens global safety and security, Nick Fury, director of the international peacekeeping agency known as S.H.I.E.L.D., finds himself in need of a team to pull the world back from the brink of disaster. Spanning the globe, a daring recruitment effort begins!",
          "release_date": "2012-04-25"
        },
        {
          "poster_path": "\/7WsyChQLEftFiDOVTGkv3hFpyyt.jpg",
          "vote_count": 19915,
          "video": false,
          "media_type": "movie",
          "id": 299536,
          "adult": false,
          "backdrop_path": "\/lmZFxXgJE3vgrciwuDib0N8CfQo.jpg",
          "original_language": "en",
          "original_title": "Avengers: Infinity War",
          "genre_ids": [
            28,
            12,
            878
          ],
          "title": "Avengers: Infinity War",
          "vote_average": 8.3,
          "overview": "As the Avengers and their allies have continued to protect the world from threats too large for any one hero to handle, a new danger has emerged from the cosmic shadows: Thanos. A despot of intergalactic infamy, his goal is to collect all six Infinity Stones, artifacts of unimaginable power, and use them to inflict his twisted will on all of reality. Everything the Avengers have fought for has led up to this moment - the fate of Earth and existence itself has never been more uncertain.",
          "release_date": "2018-04-25"
        },
        {
          "vote_count": 16924,
          "id": 271110,
          "video": false,
          "media_type": "movie",
          "vote_average": 7.4,
          "title": "Captain America: Civil War",
          "release_date": "2016-04-27",
          "original_language": "en",
          "original_title": "Captain America: Civil War",
          "genre_ids": [
            12,
            28,
            878
          ],
          "backdrop_path": "\/7FWlcZq3r6525LWOcvO9kNWurN1.jpg",
          "adult": false,
          "overview": "Following the events of Age of Ultron, the collective governments of the world pass an act designed to regula 2020-10-19 10:49:58.543 933-1047/com.cooking.coroutine D/OkHttp: te all superhuman activity. This polarizes opinion amongst the Avengers, causing two factions to side with Iron Man or Captain America, which causes an epic battle between former allies.",
          "poster_path": "\/rAGiXaUfPzY7CDEyNKUofk3Kw2e.jpg"
        }
      ],
      "gender": 1
    },
    {
      "popularity": 53.077,
      "known_for_department": "Acting",
      "gender": 2,
      "id": 976,
      "profile_path": "\/lldeQ91GwIVff43JBrpdbAAeYWj.jpg",
      "adult": false,
      "known_for": [
        {
          "release_date": "2013-05-21",
          "id": 82992,
          "vote_count": 8171,
          "video": false,
          "media_type": "movie",
          "vote_average": 6.8,
          "title": "Fast & Furious 6",
          "genre_ids": [
            28,
            80,
            53
          ],
          "original_title": "Fast & Furious 6",
          "original_language": "en",
          "adult": false,
          "backdrop_path": "\/mRfI3y2oAd7ejur2di09xC9niqp.jpg",
          "overview": "Hobbs has Dominic and Brian reassemble their crew to take down a team of mercenaries: Dominic unexpectedly gets convoluted also facing his presumed deceased girlfriend, Letty.",
          "poster_path": "\/n31VRDodbaZxkrZmmzyYSFNVpW5.jpg"
        },
        {
          "release_date": "2015-04-01",
          "id": 168259,
          "vote_count": 7845,
          "video": false,
          "media_type": "movie",
          "vote_average": 7.3,
          "title": "Furious 7",
          "genre_ids": [
            28,
            53
          ],
          "original_title": "Furious 7",
          "original_language": "en",
          "adult": false,
          "backdrop_path": "\/ajCVA8NZY2mjaONBrvNFEvrTwPH.jpg",
          "overview": "Deckard Shaw seeks revenge against Dominic Toretto and his family for his comatose brother.",
          "poster_path": "\/jPFsjmFlTFmpIY41BP3C4sVYOKw.jpg"
        },
        {
          "release_date": "2017-04-12",
          "id": 337339,
          "vote_count": 7687,
          "video": false,
          "media_type": "movie",
          "vote_average": 6.9,
          "title": "The Fate of the Furious",
          "genre_ids": [
            28,
            80,
            53
          ],
          "original_title": "The Fate of the Furious",
          "original_language": "en",
          "adult": false,
          "backdrop_path": "\/jzdnhRhG0dsuYorwvSqPqqnM1cV.jpg",
          "overview": "When a mysterious woman seduces Dom into the world of crime and a betrayal of those closest to him, the crew face trials that will test them as never before.",
          "poster_path": "\/dImWM7GJqryWJO9LHa3XQ8DD5NH.jpg"
        }
      ],
      "name": "Jason Statham"
    },
    {
      "popularity": 43.737,
      "known_for_department": "Acting",
      "name": "Tom Cruise",
      "id": 500,
      "profile_path": "\/gThaIXgpCm3PCiXwFNDBJCme85y.jpg",
      "adult": false,
      "known_for": [
        {
          "vote_count": 9887,
          "id": 137113,
          "video": false,
          "media_type": "movie",
          "vote_average": 7.6,
          "title": "Edge of Tomorrow",
          "release_date": "2014-05-27",
          "original_language": "en",
          "original_title": "Edge of Tomorrow",
          "genre_ids": [
            28,
            878
          ],
          "backdrop_path": "\/auZIuHEUec5tBTns3tCRXfayxZq.jpg",
          "adult": false,
          "overview": "Major Bill Cage is an officer who has never seen a day of combat when he is unceremoniously demoted and dropped into combat. Cage is killed within minutes, managing to take an alpha alien down with him. He awakens back at the beginning of the same day and is forced to fight and die again... and again - as physical contact with the alien has thrown him into a time loop.",
          "poster_path": "\/uUHvlkLavotfGsNtosDy8ShsIYF.jpg"
        },
        {
          "vote_count": 8092,
          "id": 75612,
          "video": false,
          "media_type": "movie",
          "vote_average": 6.6,
          "title": "Oblivion",
          "release_date": "2013-04-10",
          "original_language": "en",
          "original_title": "Oblivion",
          "genre_ids": [
            28,
            878,
            12,
            9648
          ],
          "backdrop_path": "\/Pv6vu1lxgct3GWhUXVVOMZwNlZ.jpg",
          "adult": false,
          "overview": "Jack Harper is one of the last few drone repairmen stationed on Earth.  Part of a massive operation to extract vital resources after decades of war with a terrifying threat known as the Scavs, Jack’s mission is nearly complete.  His existence is brought crashing down when he rescues a beautiful  stranger from a downed spacecraft.  Her arrival triggers a chain of events that  forces him to question everything he knows and puts the fate of humanity in his hands.",
          "poster_path": "\/2ncs7hqBsEjFMqt6Y7ShBCO9tWs.jpg"
        },
        {
          "vote_count": 7228,
          "id": 56292,
          "video": false,
          "media_type": "movie",
          "vote_average": 7,
          "title": "Mission: Impossible - Ghost Protocol",
          "release_date": "2011-12-07",
          "original_language": "en",
          "original_title": "Mission: Impossible - Ghost Protocol",
          "genre_ids": [
            28,
            53,
            12
          ],
          "backdrop_path": "\/hqyjzDRCs1N5gEsh2gklzPdsEFD.jpg",
          "adult": false,
          "overview": "Ethan Hunt and his team are racing against time to track d 2020-10-19 10:49:58.543 933-1047/com.cooking.coroutine D/OkHttp: own a dangerous terrorist named Hendricks, who has gained access to Russian nuclear launch codes and is planning a strike on the United States. An attempt to stop him ends in an explosion causing severe destruction to the Kremlin and the IMF to be implicated in the bombing, forcing the President to disavow them. No longer being aided by the government, Ethan and his team chase Hendricks around the globe, although they might still be too late to stop a disaster.",
          "poster_path": "\/7GCKNRbzcA4rJXAKoE8KS9IDnZP.jpg"
        }
      ],
      "gender": 2
    },
    {
      "popularity": 40.353,
      "known_for_department": "Acting",
      "name": "Will Smith",
      "id": 2888,
      "profile_path": "\/eze9FO9VuryXLP0aF2cRqPCcibN.jpg",
      "adult": false,
      "known_for": [
        {
          "vote_count": 16391,
          "id": 297761,
          "video": false,
          "media_type": "movie",
          "vote_average": 5.9,
          "title": "Suicide Squad",
          "release_date": "2016-08-03",
          "original_language": "en",
          "original_title": "Suicide Squad",
          "genre_ids": [
            28,
            12,
            80,
            14,
            878
          ],
          "backdrop_path": "\/6Ljm3aMh07OrY11h51XrGr694oi.jpg",
          "adult": false,
          "overview": "From DC Comics comes the Suicide Squad, an antihero team of incarcerated supervillains who act as deniable assets for the United States government, undertaking high-risk black ops missions in exchange for commuted prison sentences.",
          "poster_path": "\/xFw9RXKZDvevAGocgBK0zteto4U.jpg"
        },
        {
          "poster_path": "\/iPDkaSdKk2jRLTM65UOEoKtsIZ8.jpg",
          "vote_count": 11278,
          "video": false,
          "media_type": "movie",
          "id": 6479,
          "adult": false,
          "backdrop_path": "\/ePgD1cwmklyrFBjl6z96IuixuSY.jpg",
          "original_language": "en",
          "original_title": "I Am Legend",
          "genre_ids": [
            28,
            18,
            27,
            878,
            53
          ],
          "title": "I Am Legend",
          "vote_average": 7.2,
          "overview": "Robert Neville is a scientist who was unable to stop the spread of the terrible virus that was incurable and man-made. Immune, Neville is now the last human survivor in what is left of New York City and perhaps the world. For three years, Neville has faithfully sent out daily radio messages, desperate to find any other survivors who might be out there. But he is not alone.",
          "release_date": "2007-12-14"
        },
        {
          "poster_path": "\/uLOmOF5IzWoyrgIF5MfUnh5pa1X.jpg",
          "vote_count": 9988,
          "video": false,
          "media_type": "movie",
          "id": 607,
          "adult": false,
          "backdrop_path": "\/1GJvBE7UWU1WOVi0XREl4JQc7f8.jpg",
          "original_language": "en",
          "original_title": "Men in Black",
          "genre_ids": [
            28,
            12,
            35,
            878
          ],
          "title": "Men in Black",
          "vote_average": 7.1,
          "overview": "After a police chase with an otherworldly being, a New York City cop is recruited as an agent in a top-secret organization established to monitor and police alien activity on Earth: the Men in Black. Agent Kay and new recruit Agent Jay find themselves in the middle of a deadly plot by an intergalactic terrorist who has arrived on Earth to assassinate two ambassadors from opposing galaxies.",
          "release_date": "1997-07-02"
        }
      ],
      "gender": 2
    },
    {
      "popularity": 39.558,
      "known_for_department": "Acting",
      "name": "Erin Moriarty",
      "id": 990393,
      "profile_path": "\/oioBLC6lD6CfYGjDrs8iO6iH4gS.jpg",
      "adult": false,
      "known_for": [
        {
          "poster_path": "\/r2517Vz9EhDhj88qwbDVj8DCRZN.jpg",
          "vote_count": 7500,
          "video": false,
          "media_type": "movie",
          "id": 293167,
          "adult": false,
          "backdrop_path": "\/itFlIz3igcJ4JkQVARssyHhVlhn.jpg",
          "original_language": "en",
          "original_title": "Kong: Skull Island",
          "genre_ids": [
            28,
            12,
            14
          ],
          "title": "Kong: Skull Island",
          "vote_average": 6.4,
          "overview": "Explore the mysterious and dangerous home of the king of the apes as a team of explorers ventures deep inside the treacherous, primordial island.",
          "release_date": "2017-03-08"
        },
        {
          "poster_path": "\/2sFME73GaD8UsUxPUKe60cPdLif.jpg",
          "vote_count": 4545,
          "video": false,
          "media_type": "movie",
          "id": 334533,
          "adult": false,
          "backdrop_path": "\/tMyVb5CXHnBLQ8V7s0FuFA5V9nP.jpg",
          "original_language": "en",
          "original_title": "Captain Fantastic",
          "genre_ids": [
            12,
            18
          ],
          "title": "Captain Fantastic",
          "vote_average": 8,
          "overview": "A father living in the forests of the Pacific Northwest with his six young kids tries to assimilate back into society.",
          "release_date": "2016-07-02"
        },
        {
          "original_name": "The Boys",
          "genre_ids": [
            10759,
            10765
          ],
          "media_type": "tv",
          "name": "The Boys",
          "origin_country": [
            "US"
          ],
          "vote_count": 3071,
          "first_air_date": "2019-07-25",
          "backdrop_path": "\/mGVrXeIjyecj6TKmwPVpHlscEmw.jpg",
          "original_language": "en",
          "id": 76479,
          "vote_average": 8.4,
          "overview": "A group of vigilantes known informally as “The Boys” set out to take down corrupt superheroes with no more than blue-collar grit and a willingness to fight dirty.",
          "poster_path": "\/mY7SeH4HFFxW1hiI6cWuwCRKptN.jpg"
        }
      ],
      "gender": 1
    },
    {
      "popularity": 39.458,
      "known_for_department": "Acting",
      "name": "Tom Hanks",
      "id": 31,
      "profile_path": "\/tAyAXPLnR9Sgi7x2lMV4PUPitai.jpg",
      "adult": false,
      "known_for": [
        {
          "vote_count": 19015,
          "id": 13,
          "video": false,
          "media_type": "movie",
          "vote_average": 8.5,
          "title": "Forrest Gump",
          "release_date": "1994-07-06",
          "original_language": "en",
          "original_title": "Forrest Gump",
          "genre_ids": [
            35,
            18,
            10749
          ],
          "backdrop_path": "\/7c9UVPPiTPltouxRVY6N9uugaVA.jpg",
          "adult": false,
          "overview": "A man with a low IQ has accomplished great things in his life and been present during significant historic events—in each case, far exceeding what anyone imagined he could do. But despite all he has achieved, his one true love eludes him.",
          "poster_path": "\/clolk7rB5lAjs41SD0Vt6IXYLMm.jpg"
        },
        {
          "poster_path": "\/uXDfjJbdP4ijW5hWSBrPrlKpxab.jpg",
          "vote_count": 13022,
          "video": false,
          "media_type": "movie",
          "id": 862,
          "adult": false,
          "backdrop_path": "\/lxD5ak7BOoinRNehOCA85CQ8ubr.jpg",
          "original_language": "en",
          "original_title": "Toy Story",
          "genre_ids": [
            16,
            35,
            10751
          ],
          "title": "Toy Story",
          "vote_average": 7.9,
          "overview": "Led by Woody, Andy's toys live happily in his room until Andy's birthday brings Buzz Lightyear onto the scene. Afraid of losing his place in Andy's heart, Woody plots against Buzz. But when circumstances separate Buzz and Woody from their owner, the duo eventually learns to put aside their differences.",
          "release_date": "1995-10-30"
        },
        {
          "poster_path": "\/velWPhVMQeQKcxggNEU8YmIo52R.jpg",
          "vote_count": 11063,
          "video": false,
          "media_type": "movie",
          "id": 497,
          "adult": false,
          "backdrop_path": "\/5Nz25DPXfQaSpDgce42Y3kFg9G4.jpg",
          "original_language": "en",
          "original_title": "The Green Mile",
          "genre_ids": [
            80,
            18,
            14
          ],
          "title": "The Green Mile",
          "vote_average": 8.5,
          "overview": "A supernatural tale set on death row in a Southern prison, where gentle giant John Coffey possesses the mysterious power to heal people's ailments. When the cell block's head guard, Paul Edgecomb, recognizes Coffey's miraculous gift, he tries desperately to help stave off the condemned man's execution.",
          "release_date": "1999-12-10"
        }
      ],
      "gender": 2
    },
    {
      "popularity": 36.416,
      "known_for_department": "Acting",
      "gender": 2,
      "id": 85,
      "profile_path": "\/532tIC5wzmmR1jO7oA83rTiLvBx.jpg",
      "adult": false,
      "known_for": [
        {
          "release_date": "2003-07-09",
          "id": 22,
          "vote_count": 15066,
          "video": false,
          "media_type": "movie",
          "vote_average": 7.7,
          "title": "Pirates of the Caribbean: The Curse of the Black Pearl",
          "genre_ids": [
            28,
            12,
            14
          ],
          "original_title": "Pirates of the Caribbean: The Curse of the Black Pearl",
          "original_language": "en",
          "adult": false,
          "backdrop_path": "\/7yxjg8pvp3JuqguUaJPYTma6Z7t.jpg",
          "overview": "Jack Sparrow, a freewheeling 18th-century pirate, quarrels with a rival pirate bent on pillaging Port Royal. When the governor's daughter is kidnapped, Sparrow decides to help the girl's love save her.",
          "poster_path": "\/z8onk7LV9Mmw6zKz4hT6pzzvmvl.jpg"
        },
        {
          "release_date": "2016-11-16",
          "id": 259316,
          "vote_count": 14548,
          "video": false,
          "media_type": "movie",
          "vote_average": 7.4,
          "title": "Fantastic Beasts and Where to Find Them",
          "genre_ids": [
            12,
            14
          ],
          "original_title": "Fantastic Beasts and Where to Find Them",
          "original_language": "en",
          "adult": false,
          "backdrop_path": "\/7GrpqAs0oDcFcwFwyygnUI7BrZA.jpg",
          "overview": "In 1926, Newt Scamander arrives at the Magical Congress of the United States of America with a magically expanded briefcase, which houses a number of dangerous creatures and their habitats. When the creatures escape from the briefcase, it sends the American wizarding authorities after Newt, and threatens to strain even further the state of magical and non-magical relations.",
          "poster_path": "\/h6NYfVUyM6CDURtZSnB pz647Ldd.jpg"
        },
        {
          "release_date": "2006-06-20",
          "id": 58,
          "vote_count": 11478,
          "video": false,
          "media_type": "movie",
          "vote_average": 7.3,
          "title": "Pirates of the Caribbean: Dead Man's Chest",
          "genre_ids": [
            28,
            12,
            14
          ],
          "original_title": "Pirates of the Caribbean: Dead Man's Chest",
          "original_language": "en",
          "adult": false,
          "backdrop_path": "\/vv5a8u6e40kyH0Hp6HuamAgzRai.jpg",
          "overview": "Captain Jack Sparrow works his way out of a blood debt with the ghostly Davey Jones to avoid eternal damnation.",
          "poster_path": "\/AdRQGfT05z6L9gIpUpkh4McMmpm.jpg"
        }
      ],
      "name": "Johnny Depp"
    },
    {
      "popularity": 34.896,
      "known_for_department": "Acting",
      "name": "Henry Cavill",
      "id": 73968,
      "profile_path": "\/hErUwonrQgY5Y7RfxOfv8Fq11MB.jpg",
      "adult": false,
      "known_for": [
        {
          "poster_path": "\/5UsK3grJvtQrtzEgqNlDljJW96w.jpg",
          "vote_count": 13915,
          "video": false,
          "media_type": "movie",
          "id": 209112,
          "adult": false,
          "backdrop_path": "\/doiUtOHzcxXFl0GVQ2n8Ay6Pirx.jpg",
          "original_language": "en",
          "original_title": "Batman v Superman: Dawn of Justice",
          "genre_ids": [
            28,
            12,
            14
          ],
          "title": "Batman v Superman: Dawn of Justice",
          "vote_average": 5.9,
          "overview": "Fearing the actions of a god-like Super Hero left unchecked, Gotham City’s own formidable, forceful vigilante takes on Metropolis’s most revered, modern-day savior, while the world wrestles with what sort of hero it really needs. And with Batman and Superman at war with one another, a new threat quickly arises, putting mankind in greater danger than it’s ever known before.",
          "release_date": "2016-03-23"
        },
        {
          "poster_path": "\/7rIPjn5TUK04O25ZkMyHrGNPgLx.jpg",
          "vote_count": 11427,
          "video": false,
          "media_type": "movie",
          "id": 49521,
          "adult": false,
          "backdrop_path": "\/69EFgWWPFWbRNHmQgYdSnyJ94Ge.jpg",
          "original_language": "en",
          "original_title": "Man of Steel",
          "genre_ids": [
            28,
            12,
            14,
            878
          ],
          "title": "Man of Steel",
          "vote_average": 6.5,
          "overview": "A young boy learns that he has extraordinary powers and is not of this earth. As a young man, he journeys to discover where he came from and what he was sent here to do. But the hero in him must emerge if he is to save the world from annihilation and become the symbol of hope for all mankind.",
          "release_date": "2013-06-12"
        },
        {
          "poster_path": "\/eifGNCSDuxJeS1loAXil5bIGgvC.jpg",
          "vote_count": 9695,
          "video": false,
          "media_type": "movie",
          "id": 141052,
          "adult": false,
          "backdrop_path": "\/jorgjEk6a0bed6jdR5wu4S6ZvRm.jpg",
          "original_language": "en",
          "original_title": "Justice League",
          "genre_ids": [
            28,
            12,
            14,
            878
          ],
          "title": "Justice League",
          "vote_average": 6.2,
          "overview": "Fuelled by his restored faith in humanity and inspired by Superman's selfless act, Bruce Wayne and Diana Prince assemble a team of metahumans consisting of Barry Allen, Arthur Curry and Victor Stone to face the catastrophic threat of Steppenwolf and the Parademons who are on the hunt for three Mother Boxes on Earth.",
          "release_date": "2017-11-15"
        }
      ],
      "gender": 2
    },
    {
      "popularity": 33.234,
      "known_for_department": "Acting",
      "gender": 1,
      "id": 4494,
      "profile_path": "\/p3wxUblbPwRVzTp7jW1lXISKIob.jpg",
      "adult": false,
      "known_for": [
        {
          "release_date": "2003-05-23",
          "id": 310,
          "vote_count": 7924,
          "video": false,
          "media_type": "movie",
          "vote_average": 6.7,
          "title": "Bruce Almighty",
          "genre_ids": [
            35,
            14
          ],
          "original_title": "Bruce Almighty",
          "original_language": "en",
          "adult": false,
          "backdrop_path": "\/vZh2ZoBMyAiH8vYGqadyMBX50Gc.jpg",
          "overview": "Bruce Nolan toils as a 'human interest' television reporter in Buffalo, N.Y., but despite his high ratings and the love of his beautiful girlfriend, Bruce remains unfulfilled. At the end of the worst day in his life, he angrily ridicules God—and the Almighty responds, endowing Bruce with all of His divine powers.",
          "poster_path": "\/3XJKBKh9Km89EoUEitVTSnrlAkZ.jpg"
        },
        {
          "release_date": "2005-06-28",
          "id": 74,
          "vote_count": 5681,
          "video": false,
          "media_type": "movie",
          "vote_average": 6.4,
          "title": "War of the Worlds",
          "genre_ids": [
            12,
            878,
            53
          ],
          "original_title": "War of the Worlds",
          "original_language": "en",
          "adult": false,
          "backdrop_path": "\/nH6hPhJq3EEv9CnBZgXU3IQnpJo.jpg",
          "overview": "Ray Ferrier is a divorced dockworker and less-than-perfect father. Soon aft er his ex-wife and her new husband drop off his teenage son and young daughter for a rare weekend visit, a strange and powerful lightning storm touches down.",
          "poster_path": "\/6Biy7R9LfumYshur3YKhpj56MpB.jpg"
        },
        {
          "poster_path": "\/a3XOGrrAjl1wwiumtACWBufg6AL.jpg",
          "id": 9820,
          "vote_count": 2558,
          "video": false,
          "media_type": "movie",
          "adult": false,
          "backdrop_path": "\/mrYJ0ijgaxjHKAs0ybNYxyfP8l5.jpg",
          "genre_ids": [
            35,
            10751
          ],
          "original_title": "The Parent Trap",
          "original_language": "en",
          "title": "The Parent Trap",
          "vote_average": 7.1,
          "overview": "Hallie Parker and Annie James are identical twins separated at a young age because of their parents' divorce. unknowingly to their parents, the girls are sent to the same summer camp where they meet, discover the truth about themselves, and then plot with each other to switch places. Hallie meets her mother, and Annie meets her father for the first time in years.",
          "release_date": "1998-07-28"
        }
      ],
      "name": "Lisa Ann Walter"
    }
  ]
}